<svg xmlns="http://www.w3.org/2000/svg" width="20.185" height="20.184" viewBox="0 0 20.185 20.184">
  <g id="_123ычычыРесурс_2" data-name="123ычычыРесурс 2" transform="translate(0 0)">
    <g id="Слой_1" data-name="Слой 1">
      <path id="Path_22" data-name="Path 22" d="M14.615,0H5.57A5.576,5.576,0,0,0,0,5.57v9.045a5.576,5.576,0,0,0,5.57,5.57h9.045a5.577,5.577,0,0,0,5.57-5.57V5.57A5.576,5.576,0,0,0,14.615,0Zm3.779,14.615a3.783,3.783,0,0,1-3.779,3.779H5.57a3.783,3.783,0,0,1-3.779-3.779V5.57A3.783,3.783,0,0,1,5.57,1.791h9.045A3.783,3.783,0,0,1,18.394,5.57Z" fill="#fff"/>
      <path id="Path_23" data-name="Path 23" d="M37.979,32.78a5.2,5.2,0,1,0,5.2,5.2A5.2,5.2,0,0,0,37.979,32.78Zm0,8.61a3.41,3.41,0,1,1,3.412-3.409A3.41,3.41,0,0,1,37.979,41.39Z" transform="translate(-27.888 -27.888)" fill="#fff"/>
      <path id="Path_24" data-name="Path 24" d="M96.436,22.6a1.315,1.315,0,1,0,.928.385A1.315,1.315,0,0,0,96.436,22.6Z" transform="translate(-80.924 -19.227)" fill="#fff"/>
    </g>
  </g>
</svg>
